EESchema Schematic File Version 2
LIBS:Amplifier_Audio
LIBS:Amplifier_Operational
LIBS:Audio
LIBS:Device
LIBS:Diode
LIBS:Diode_Bridge
LIBS:Connector_Generic
LIBS:Connector_Generic_Shielded
LIBS:Connector_Specialized
LIBS:power
LIBS:Regulator_Linear
LIBS:Transistor_BJT
LIBS:Analog
LIBS:Relay
LIBS:Mechanical
LIBS:minima-cache
EELAYER 25 0
EELAYER END
$Descr A4 11693 8268
encoding utf-8
Sheet 2 4
Title ""
Date ""
Rev ""
Comp ""
Comment1 ""
Comment2 ""
Comment3 ""
Comment4 ""
$EndDescr
$Comp
L LM1875 U201
U 1 1 5ABAB0E8
P 3700 4100
F 0 "U201" H 3850 4350 50  0000 C CNN
F 1 "LM1875" H 3850 4250 50  0000 C CNN
F 2 "TO_SOT_Packages_THT:TO-220-5_Pentawatt_Multiwatt-5_Vertical_StaggeredType1" H 3700 4100 50  0001 C CIN
F 3 "" H 3700 4100 50  0001 C CNN
	1    3700 4100
	1    0    0    -1  
$EndComp
$Comp
L C C205
U 1 1 5ABAB1B4
P 9900 4250
F 0 "C205" H 9925 4350 50  0000 L CNN
F 1 "100n" H 9925 4150 50  0000 L CNN
F 2 "Capacitor_SMD:C_1206_3216Metric_Pad1.24x1.80mm_HandSolder" H 9938 4100 50  0001 C CNN
F 3 "http://www.farnell.com/datasheets/2265830.pdf" H 9900 4250 50  0001 C CNN
F 4 "100V" H 9950 3950 60  0000 L CNN "Voltage"
F 5 "X7R" H 9950 4050 60  0000 L CNN "Type"
F 6 "Farnell:1856606" H 9900 4250 60  0001 C CNN "Vendor"
F 7 "Multicomp:MCSH31B104K101CT" H 9900 4250 60  0001 C CNN "Manufacturer"
	1    9900 4250
	1    0    0    -1  
$EndComp
$Comp
L CP1 C206
U 1 1 5ABAB333
P 10200 4250
F 0 "C206" H 10225 4350 50  0000 L CNN
F 1 "100u" H 10225 4150 50  0000 L CNN
F 2 "Capacitor_THT:CP_Radial_D8.0mm_P3.50mm" H 10200 4250 50  0001 C CNN
F 3 "http://www.farnell.com/datasheets/2321304.pdf" H 10200 4250 50  0001 C CNN
F 4 "50V" H 10250 4050 60  0000 L CNN "Voltage"
F 5 "Farnell:2346269" H 10200 4250 60  0001 C CNN "Vendor"
F 6 "Rybicon:50YXJ100MT78X11.5" H 10200 4250 60  0001 C CNN "Manufacturer"
	1    10200 4250
	1    0    0    -1  
$EndComp
$Comp
L VCC #PWR01
U 1 1 5ABAB51E
P 9900 3900
F 0 "#PWR01" H 9900 3750 50  0001 C CNN
F 1 "VCC" H 9900 4050 50  0000 C CNN
F 2 "" H 9900 3900 50  0001 C CNN
F 3 "" H 9900 3900 50  0001 C CNN
	1    9900 3900
	1    0    0    -1  
$EndComp
$Comp
L VEE #PWR02
U 1 1 5ABAB544
P 9900 5900
F 0 "#PWR02" H 9900 5750 50  0001 C CNN
F 1 "VEE" H 9900 6050 50  0000 C CNN
F 2 "" H 9900 5900 50  0001 C CNN
F 3 "" H 9900 5900 50  0001 C CNN
	1    9900 5900
	-1   0    0    1   
$EndComp
Wire Wire Line
	9900 4900 10300 4900
Wire Wire Line
	9900 4400 9900 5000
Wire Wire Line
	10200 4400 10200 5000
Connection ~ 10200 4900
Connection ~ 9900 4900
Wire Wire Line
	9900 3900 9900 4100
Wire Wire Line
	10200 4000 10200 4100
Connection ~ 9900 4000
Wire Wire Line
	9900 5300 9900 5900
Wire Wire Line
	10200 5800 10200 5300
Connection ~ 9900 5800
$Comp
L VCC #PWR03
U 1 1 5ABABEED
P 3700 3700
F 0 "#PWR03" H 3700 3550 50  0001 C CNN
F 1 "VCC" H 3700 3850 50  0000 C CNN
F 2 "" H 3700 3700 50  0001 C CNN
F 3 "" H 3700 3700 50  0001 C CNN
	1    3700 3700
	0    1    1    0   
$EndComp
$Comp
L VEE #PWR04
U 1 1 5ABAC04C
P 3700 4500
F 0 "#PWR04" H 3700 4350 50  0001 C CNN
F 1 "VEE" H 3700 4650 50  0000 C CNN
F 2 "" H 3700 4500 50  0001 C CNN
F 3 "" H 3700 4500 50  0001 C CNN
	1    3700 4500
	0    1    1    0   
$EndComp
Wire Wire Line
	3600 4500 3600 4400
Wire Wire Line
	3600 3800 3600 3700
$Comp
L GNDPWR #PWR05
U 1 1 5ABAC584
P 10300 4900
F 0 "#PWR05" H 10300 4700 50  0001 C CNN
F 1 "GNDPWR" H 10300 4770 50  0000 C CNN
F 2 "" H 10300 4850 50  0001 C CNN
F 3 "" H 10300 4850 50  0001 C CNN
	1    10300 4900
	0    -1   -1   0   
$EndComp
Wire Wire Line
	4100 4100 4100 5300
Wire Wire Line
	4000 4100 4500 4100
Wire Wire Line
	4100 5300 4000 5300
Wire Wire Line
	3200 4200 3200 5300
Wire Wire Line
	3200 5300 3300 5300
Wire Wire Line
	3600 5300 3700 5300
Wire Wire Line
	3200 2900 3200 4000
Connection ~ 4100 4100
$Comp
L GNDPWR #PWR06
U 1 1 5ABAD102
P 4400 3150
F 0 "#PWR06" H 4400 2950 50  0001 C CNN
F 1 "GNDPWR" H 4400 3020 50  0000 C CNN
F 2 "" H 4400 3100 50  0001 C CNN
F 3 "" H 4400 3100 50  0001 C CNN
	1    4400 3150
	-1   0    0    1   
$EndComp
$Comp
L R R207
U 1 1 5ABAD520
P 4650 4100
F 0 "R207" V 4730 4100 50  0000 C CNN
F 1 "4.7" V 4650 4100 50  0000 C CNN
F 2 "Resistor_THT:R_Axial_DIN0411_L9.9mm_D3.6mm_P15.24mm_Horizontal" V 4580 4100 50  0001 C CNN
F 3 "" H 4650 4100 50  0001 C CNN
	1    4650 4100
	0    1    1    0   
$EndComp
$Comp
L L L201
U 1 1 5ABAD740
P 4650 4400
F 0 "L201" V 4600 4400 50  0000 C CNN
F 1 "2u" V 4725 4400 50  0000 C CNN
F 2 "Choke_Axial_ThroughHole:Choke_Horizontal_RM15mm" H 4650 4400 50  0001 C CNN
F 3 "" H 4650 4400 50  0001 C CNN
	1    4650 4400
	0    -1   -1   0   
$EndComp
Connection ~ 4400 4100
Wire Wire Line
	4400 4400 4500 4400
Wire Wire Line
	6000 4100 7200 4100
$Comp
L R R203
U 1 1 5ABADAC1
P 4400 3450
F 0 "R203" V 4480 3450 50  0000 C CNN
F 1 "4.7" V 4400 3450 50  0000 C CNN
F 2 "Resistor_THT:R_Axial_DIN0411_L9.9mm_D3.6mm_P15.24mm_Horizontal" V 4330 3450 50  0001 C CNN
F 3 "" H 4400 3450 50  0001 C CNN
	1    4400 3450
	1    0    0    -1  
$EndComp
Wire Wire Line
	4400 4000 4400 4400
$Comp
L R R204
U 1 1 5ABAEC8A
P 6300 3450
F 0 "R204" V 6380 3450 50  0000 C CNN
F 1 "10" V 6300 3450 50  0000 C CNN
F 2 "Resistor_THT:R_Axial_DIN0411_L9.9mm_D3.6mm_P15.24mm_Horizontal" V 6230 3450 50  0001 C CNN
F 3 "" H 6300 3450 50  0001 C CNN
	1    6300 3450
	1    0    0    -1  
$EndComp
Text HLabel 7200 3200 2    60   Output ~ 0
spkgnd
Wire Wire Line
	4400 3700 4400 3600
Wire Wire Line
	4400 3300 4400 3150
Connection ~ 6300 4100
Wire Wire Line
	6300 3700 6300 3600
Text HLabel 7200 4100 2    60   Output ~ 0
spkhot
Wire Wire Line
	6900 4000 6900 4200
Connection ~ 6900 4100
$Comp
L VCC #PWR07
U 1 1 5ABAF917
P 6900 3600
F 0 "#PWR07" H 6900 3450 50  0001 C CNN
F 1 "VCC" H 6900 3750 50  0000 C CNN
F 2 "" H 6900 3600 50  0001 C CNN
F 3 "" H 6900 3600 50  0001 C CNN
	1    6900 3600
	1    0    0    -1  
$EndComp
$Comp
L VEE #PWR08
U 1 1 5ABAF97F
P 6900 4600
F 0 "#PWR08" H 6900 4450 50  0001 C CNN
F 1 "VEE" H 6900 4750 50  0000 C CNN
F 2 "" H 6900 4600 50  0001 C CNN
F 3 "" H 6900 4600 50  0001 C CNN
	1    6900 4600
	-1   0    0    1   
$EndComp
Wire Wire Line
	6900 4500 6900 4600
Wire Wire Line
	6900 3700 6900 3600
$Comp
L CP1 C202
U 1 1 5ABAFDD9
P 2550 3500
F 0 "C202" H 2575 3600 50  0000 L CNN
F 1 "470u" H 2575 3400 50  0000 L CNN
F 2 "Capacitor_THT:CP_Radial_D8.0mm_P3.50mm" H 2550 3500 50  0001 C CNN
F 3 "http://www.farnell.com/datasheets/2321304.pdf" H 2550 3500 50  0001 C CNN
F 4 "16V" H 2600 3300 60  0000 L CNN "Voltage"
F 5 "Farnell:1144610" H 2550 3500 60  0001 C CNN "Vendor"
F 6 "Rybicon:16YXJ470M8X11.5" H 2550 3500 60  0001 C CNN "Manufacturer"
	1    2550 3500
	0    1    1    0   
$EndComp
Text HLabel 2300 3500 0    60   Input ~ 0
inp
Text HLabel 2300 4700 0    60   Input ~ 0
inn
Wire Wire Line
	2300 3500 2400 3500
Wire Wire Line
	2300 4700 2400 4700
Text Notes 4300 5300 0    60   ~ 0
Fz=1.6e6\nFp=6.6e6
$Comp
L 1N5404 D201
U 1 1 5AC0C9F9
P 6900 3850
F 0 "D201" H 6900 3950 50  0000 C CNN
F 1 "1N5404" H 6900 3750 50  0000 C CNN
F 2 "Diode_THT:D_DO-201AD_P12.70mm_Horizontal" H 6900 3675 50  0001 C CNN
F 3 "" H 6900 3850 50  0001 C CNN
	1    6900 3850
	0    1    1    0   
$EndComp
$Comp
L 1N5404 D202
U 1 1 5AC0CCC8
P 6900 4350
F 0 "D202" H 6900 4450 50  0000 C CNN
F 1 "1N5404" H 6900 4250 50  0000 C CNN
F 2 "Diode_THT:D_DO-201AD_P12.70mm_Horizontal" H 6900 4175 50  0001 C CNN
F 3 "" H 6900 4350 50  0001 C CNN
	1    6900 4350
	0    1    1    0   
$EndComp
$Comp
L R R211
U 1 1 5AC10204
P 3450 5300
F 0 "R211" V 3530 5300 50  0000 C CNN
F 1 "1k6" V 3450 5300 50  0000 C CNN
F 2 "Resistor_SMD:R_1206_3216Metric_Pad1.24x1.80mm_HandSolder" V 3380 5300 50  0001 C CNN
F 3 "" H 3450 5300 50  0001 C CNN
	1    3450 5300
	0    -1   1    0   
$EndComp
$Comp
L R R205
U 1 1 5AC1E6C0
P 2950 3500
F 0 "R205" V 3030 3500 50  0000 C CNN
F 1 "499" V 2950 3500 50  0000 C CNN
F 2 "Resistor_SMD:R_1206_3216Metric_Pad1.24x1.80mm_HandSolder" V 2880 3500 50  0001 C CNN
F 3 "http://www.farnell.com/datasheets/2052875.pdf" H 2950 3500 50  0001 C CNN
F 4 "Farnell:2095153" V 2950 3500 60  0001 C CNN "Vendor"
F 5 "PANASONIC:ERA8AEB4990V" V 2950 3500 60  0001 C CNN "Manufacturer"
F 6 "MF" V 3200 3500 60  0000 C CNN "Type"
F 7 "1/4" V 3100 3500 60  0000 C CNN "Power"
	1    2950 3500
	0    1    1    0   
$EndComp
Wire Wire Line
	4100 2600 4100 3500
Connection ~ 4100 2900
$Comp
L R R201
U 1 1 5AC1F021
P 3450 2900
F 0 "R201" V 3530 2900 50  0000 C CNN
F 1 "1k6" V 3450 2900 50  0000 C CNN
F 2 "Resistor_SMD:R_1206_3216Metric_Pad1.24x1.80mm_HandSolder" V 3380 2900 50  0001 C CNN
F 3 "" H 3450 2900 50  0001 C CNN
	1    3450 2900
	0    -1   1    0   
$EndComp
Wire Wire Line
	3700 2900 3600 2900
Wire Wire Line
	3200 2900 3300 2900
Wire Wire Line
	4100 3500 3600 3500
Connection ~ 3200 3500
Wire Wire Line
	3600 4700 4100 4700
Connection ~ 4100 4700
Connection ~ 3200 4700
Wire Wire Line
	3200 4000 3400 4000
Wire Wire Line
	3200 4200 3400 4200
$Comp
L C C210
U 1 1 5AC80639
P 3850 5300
F 0 "C210" H 3875 5400 50  0000 L CNN
F 1 "15p" H 3875 5200 50  0000 L CNN
F 2 "Capacitor_SMD:C_0805_2012Metric_Pad1.15x1.50mm_HandSolder" H 3888 5150 50  0001 C CNN
F 3 "http://www.farnell.com/datasheets/1825496.pdf" H 3850 5300 50  0001 C CNN
F 4 "100V" H 3900 5000 60  0000 L CNN "Voltage"
F 5 "NP0" H 3900 5100 60  0000 L CNN "Type"
F 6 "Farnel:1856264" H 3850 5300 60  0001 C CNN "Vendor"
F 7 "Multicomp:MCMT21N150F101CT" H 3850 5300 60  0001 C CNN "Manufacturer"
	1    3850 5300
	0    1    1    0   
$EndComp
$Comp
L C C201
U 1 1 5AC80954
P 3850 2900
F 0 "C201" H 3875 3000 50  0000 L CNN
F 1 "15p" H 3875 2800 50  0000 L CNN
F 2 "Capacitor_SMD:C_0805_2012Metric_Pad1.15x1.50mm_HandSolder" H 3888 2750 50  0001 C CNN
F 3 "http://www.farnell.com/datasheets/1825496.pdf" H 3850 2900 50  0001 C CNN
F 4 "100V" H 3900 2600 60  0000 L CNN "Voltage"
F 5 "NP0" H 3900 2700 60  0000 L CNN "Type"
F 6 "Farnel:1856264" H 3850 2900 60  0001 C CNN "Vendor"
F 7 "Multicomp:MCMT21N150F101CT" H 3850 2900 60  0001 C CNN "Manufacturer"
	1    3850 2900
	0    1    1    0   
$EndComp
$Comp
L C C208
U 1 1 5AC8C9A2
P 9900 5150
F 0 "C208" H 9925 5250 50  0000 L CNN
F 1 "100n" H 9925 5050 50  0000 L CNN
F 2 "Capacitor_SMD:C_1206_3216Metric_Pad1.24x1.80mm_HandSolder" H 9938 5000 50  0001 C CNN
F 3 "http://www.farnell.com/datasheets/2265830.pdf" H 9900 5150 50  0001 C CNN
F 4 "100V" H 9950 4850 60  0000 L CNN "Voltage"
F 5 "X7R" H 9950 4950 60  0000 L CNN "Type"
F 6 "Farnell:1856606" H 9900 5150 60  0001 C CNN "Vendor"
F 7 "Multicomp:MCSH31B104K101CT" H 9900 5150 60  0001 C CNN "Manufacturer"
	1    9900 5150
	1    0    0    -1  
$EndComp
$Comp
L C C204
U 1 1 5AC8D1DC
P 6300 3850
F 0 "C204" H 6325 3950 50  0000 L CNN
F 1 "100n" H 6325 3750 50  0000 L CNN
F 2 "Capacitor_SMD:C_1206_3216Metric_Pad1.24x1.80mm_HandSolder" H 6338 3700 50  0001 C CNN
F 3 "http://www.farnell.com/datasheets/2265830.pdf" H 6300 3850 50  0001 C CNN
F 4 "100V" H 6350 3550 60  0000 L CNN "Voltage"
F 5 "X7R" H 6350 3650 60  0000 L CNN "Type"
F 6 "Farnell:1856606" H 6300 3850 60  0001 C CNN "Vendor"
F 7 "Multicomp:MCSH31B104K101CT" H 6300 3850 60  0001 C CNN "Manufacturer"
	1    6300 3850
	1    0    0    -1  
$EndComp
$Comp
L C C203
U 1 1 5AC8DC6B
P 4400 3850
F 0 "C203" H 4425 3950 50  0000 L CNN
F 1 "220n" H 4425 3750 50  0000 L CNN
F 2 "Capacitor_SMD:C_1206_3216Metric_Pad1.24x1.80mm_HandSolder" H 4438 3700 50  0001 C CNN
F 3 "http://www.farnell.com/datasheets/2265830.pdf" H 4400 3850 50  0001 C CNN
F 4 "100V" H 4450 3550 60  0000 L CNN "Voltage"
F 5 "X7R" H 4450 3650 60  0000 L CNN "Type"
F 6 "Farnell:1856615" H 4400 3850 60  0001 C CNN "Vendor"
F 7 "Multicomp:MCSH31B224K101CT" H 4400 3850 60  0001 C CNN "Manufacturer"
	1    4400 3850
	1    0    0    -1  
$EndComp
Wire Wire Line
	3100 3500 3300 3500
Wire Wire Line
	3100 4700 3300 4700
Wire Wire Line
	2700 3500 2800 3500
Wire Wire Line
	2700 4700 2800 4700
$Comp
L CP1 C209
U 1 1 5ACDCA60
P 10200 5150
F 0 "C209" H 10225 5250 50  0000 L CNN
F 1 "100u" H 10225 5050 50  0000 L CNN
F 2 "Capacitor_THT:CP_Radial_D8.0mm_P3.50mm" H 10200 5150 50  0001 C CNN
F 3 "http://www.farnell.com/datasheets/2321304.pdf" H 10200 5150 50  0001 C CNN
F 4 "50V" H 10250 4950 60  0000 L CNN "Voltage"
F 5 "Farnell:2346269" H 10200 5150 60  0001 C CNN "Vendor"
F 6 "Rybicon:50YXJ100MT78X11.5" H 10200 5150 60  0001 C CNN "Manufacturer"
	1    10200 5150
	1    0    0    -1  
$EndComp
$Comp
L CP1 C207
U 1 1 5AD5D094
P 2550 4700
F 0 "C207" H 2575 4800 50  0000 L CNN
F 1 "470u" H 2575 4600 50  0000 L CNN
F 2 "Capacitor_THT:CP_Radial_D8.0mm_P3.50mm" H 2550 4700 50  0001 C CNN
F 3 "http://www.farnell.com/datasheets/2321304.pdf" H 2550 4700 50  0001 C CNN
F 4 "16V" H 2600 4500 60  0000 L CNN "Voltage"
F 5 "Farnell:1144610" H 2550 4700 60  0001 C CNN "Vendor"
F 6 "Rybicon:16YXJ470M8X11.5" H 2550 4700 60  0001 C CNN "Manufacturer"
	1    2550 4700
	0    1    1    0   
$EndComp
Wire Wire Line
	3600 5000 4100 5000
Connection ~ 4100 5000
Wire Wire Line
	3300 5000 3200 5000
Connection ~ 3200 5000
Wire Wire Line
	3300 3200 3200 3200
Connection ~ 3200 3200
Wire Wire Line
	3600 3200 4100 3200
Connection ~ 4100 3200
Wire Wire Line
	3600 3700 3700 3700
Wire Wire Line
	3600 4500 3700 4500
$Comp
L R R208
U 1 1 5AD67EF8
P 2950 4700
F 0 "R208" V 3030 4700 50  0000 C CNN
F 1 "499" V 2950 4700 50  0000 C CNN
F 2 "Resistor_SMD:R_1206_3216Metric_Pad1.24x1.80mm_HandSolder" V 2880 4700 50  0001 C CNN
F 3 "http://www.farnell.com/datasheets/2052875.pdf" H 2950 4700 50  0001 C CNN
F 4 "Farnell:2095153" V 2950 4700 60  0001 C CNN "Vendor"
F 5 "PANASONIC:ERA8AEB4990V" V 2950 4700 60  0001 C CNN "Manufacturer"
F 6 "MF" V 3200 4700 60  0000 C CNN "Type"
F 7 "1/4" V 3100 4700 60  0000 C CNN "Power"
	1    2950 4700
	0    1    1    0   
$EndComp
$Comp
L R R202
U 1 1 5AD6844E
P 3450 3200
F 0 "R202" V 3530 3200 50  0000 C CNN
F 1 "15k" V 3450 3200 50  0000 C CNN
F 2 "Resistor_SMD:R_1206_3216Metric_Pad1.24x1.80mm_HandSolder" V 3380 3200 50  0001 C CNN
F 3 "http://www.farnell.com/datasheets/2052875.pdf" H 3450 3200 50  0001 C CNN
F 4 "Farnell:1717752" V 3450 3200 60  0001 C CNN "Vendor"
F 5 "PANASONIC:ERA8AEB153V" V 3450 3200 60  0001 C CNN "Manufacturer"
F 6 "MF" V 3600 3400 60  0000 C CNN "Type"
F 7 "1/4" V 3500 3400 60  0000 C CNN "Power"
	1    3450 3200
	0    1    1    0   
$EndComp
$Comp
L R R206
U 1 1 5AD68773
P 3450 3500
F 0 "R206" V 3530 3500 50  0000 C CNN
F 1 "15k" V 3450 3500 50  0000 C CNN
F 2 "Resistor_SMD:R_1206_3216Metric_Pad1.24x1.80mm_HandSolder" V 3380 3500 50  0001 C CNN
F 3 "http://www.farnell.com/datasheets/2052875.pdf" H 3450 3500 50  0001 C CNN
F 4 "Farnell:1717752" V 3450 3500 60  0001 C CNN "Vendor"
F 5 "PANASONIC:ERA8AEB153V" V 3450 3500 60  0001 C CNN "Manufacturer"
F 6 "MF" V 3700 3500 60  0000 C CNN "Type"
F 7 "1/4" V 3600 3500 60  0000 C CNN "Power"
	1    3450 3500
	0    1    1    0   
$EndComp
$Comp
L R R209
U 1 1 5AD68E38
P 3450 4700
F 0 "R209" V 3530 4700 50  0000 C CNN
F 1 "15k" V 3450 4700 50  0000 C CNN
F 2 "Resistor_SMD:R_1206_3216Metric_Pad1.24x1.80mm_HandSolder" V 3380 4700 50  0001 C CNN
F 3 "http://www.farnell.com/datasheets/2052875.pdf" H 3450 4700 50  0001 C CNN
F 4 "Farnell:1717752" V 3450 4700 60  0001 C CNN "Vendor"
F 5 "PANASONIC:ERA8AEB153V" V 3450 4700 60  0001 C CNN "Manufacturer"
F 6 "MF" V 3600 4900 60  0000 C CNN "Type"
F 7 "1/4" V 3500 4900 60  0000 C CNN "Power"
	1    3450 4700
	0    1    1    0   
$EndComp
$Comp
L R R210
U 1 1 5AD68F1D
P 3450 5000
F 0 "R210" V 3530 5000 50  0000 C CNN
F 1 "15k" V 3450 5000 50  0000 C CNN
F 2 "Resistor_SMD:R_1206_3216Metric_Pad1.24x1.80mm_HandSolder" V 3380 5000 50  0001 C CNN
F 3 "http://www.farnell.com/datasheets/2052875.pdf" H 3450 5000 50  0001 C CNN
F 4 "Farnell:1717752" V 3450 5000 60  0001 C CNN "Vendor"
F 5 "PANASONIC:ERA8AEB153V" V 3450 5000 60  0001 C CNN "Manufacturer"
F 6 "MF" V 3600 5200 60  0000 C CNN "Type"
F 7 "1/4" V 3500 5200 60  0000 C CNN "Power"
	1    3450 5000
	0    1    1    0   
$EndComp
Text HLabel 5900 2600 2    60   Input ~ 0
sgnd
Wire Wire Line
	5900 2600 4100 2600
Wire Wire Line
	4000 2900 4100 2900
Wire Wire Line
	10200 5800 9900 5800
Wire Wire Line
	10200 4000 9900 4000
$Comp
L FINDER-40.51 K201
U 1 1 5ADE497B
P 5600 4400
F 0 "K201" H 6050 4550 50  0000 L CNN
F 1 "FINDER-40.51" H 6050 4450 50  0000 L CNN
F 2 "Relays_THT:Relay_SPDT_Finder_40.51" H 6740 4360 50  0001 C CNN
F 3 "" H 5600 4400 50  0001 C CNN
	1    5600 4400
	0    -1   -1   0   
$EndComp
$Comp
L D D203
U 1 1 5ADE4AF0
P 5650 5100
F 0 "D203" H 5650 5200 50  0000 C CNN
F 1 "1N4148" H 5650 5000 50  0000 C CNN
F 2 "Diodes_THT:D_DO-35_SOD27_P7.62mm_Horizontal" H 5650 5100 50  0001 C CNN
F 3 "" H 5650 5100 50  0001 C CNN
	1    5650 5100
	1    0    0    -1  
$EndComp
Wire Wire Line
	5500 5100 5200 5100
Wire Wire Line
	5200 4600 5200 5400
Wire Wire Line
	5200 4600 5300 4600
Wire Wire Line
	5800 5100 7200 5100
Wire Wire Line
	6000 5100 6000 4600
Wire Wire Line
	6000 4600 5900 4600
Wire Wire Line
	4800 4400 4900 4400
Wire Wire Line
	4900 4400 4900 4100
Wire Wire Line
	4800 4100 5300 4100
Connection ~ 4900 4100
Wire Wire Line
	6300 3200 7200 3200
Wire Wire Line
	6300 3200 6300 3300
Wire Wire Line
	6300 4000 6300 4100
Wire Wire Line
	5900 4200 6000 4200
Wire Wire Line
	6000 4200 6000 4100
NoConn ~ 5300 4300
Text HLabel 7200 5100 2    60   Input ~ 0
muten
Connection ~ 6000 5100
Wire Wire Line
	5200 5400 7200 5400
Connection ~ 5200 5100
Text HLabel 7200 5400 2    60   Input ~ 0
mutep
Text HLabel 7200 2900 2    60   Output ~ 0
outp
Wire Wire Line
	5200 4100 5200 2900
Wire Wire Line
	5200 2900 7200 2900
Connection ~ 5200 4100
$EndSCHEMATC
